Plotting I - Initial Tools - PEP 2020
…
Figure 1: Visualization of how values are organized in a data frame (reproduced from R for Data Science)

Lets have a look at the data we have just read in. You can either just type the name of the data frame into the console:

df

## # A tibble: 54 x 14
##    station dttm                      lon   lat  temp   sal fluor moon_phase
##    <chr>   <dttm>                  <dbl> <dbl> <dbl> <dbl> <dbl>      <dbl>
##  1 S258-0… 2015-03-27 00:04:00.000  174. -43.4  14.3  34.6  3.11         52
##  2 S258-0… 2015-03-27 10:37:00.000  175. -43.4  16.8  35.1  6.42         52
##  3 S258-0… 2015-03-27 23:31:00.000  176. -43.2  16.2  34.9  3.83         52
##  4 S258-0… 2015-03-28 10:30:00.000  177. -43.5  16.3  34.8  3.76         62
##  5 S258-0… 2015-03-29 00:11:00.000  179. -43.4  16.1  34.7  7.83         71
##  6 S258-0… 2015-03-29 10:42:00.000  180. -43.6  16.8  34.9  3.06         71
##  7 S258-0… 2015-03-29 23:59:00.000 -179. -43.8  16.3  33.2 NA            71
##  8 S258-0… 2015-03-30 10:49:00.000 -178. -44.1  NA    NA   NA            79
##  9 S258-0… 2015-04-02 11:56:00.000 -177. -44.1  15.5  34.9  3.41         96
## 10 S258-0… 2015-04-02 23:53:00.000 -176. -44.1  15.9  34.9  4.55         96
## # … with 44 more rows, and 6 more variables: moon_mode <chr>, tow_dist <dbl>,
## #   biomass <dbl>, nekt_total_num <dbl>, nekt_total_vol <dbl>, daynight <chr>
…
df[[5]]

##  [1] 14.30 16.80 16.20 16.30 16.10 16.80 16.30    NA 15.50 15.90 16.40 16.20
## [13] 16.40 15.60 15.70 15.00 16.10 15.60 16.40 16.20 16.40 16.80 16.50 18.20
## [25] 18.10 17.30 17.80 17.80 19.00 19.10 20.20 20.60 20.60 20.90 21.00 21.50
## [37] 21.00 22.40 22.20 23.01 22.80 23.55 24.64 24.40 24.30 24.82 24.82 25.00
## [49] 25.80 26.70 26.70 29.04 29.10 29.10

This second set return a single column data frame:

df["temp"]

## # A tibble: 54 x 1
##     temp
##    <dbl>
##  1  14.3
##  2  16.8
##  3  16.2
##  4  16.3
##  5  16.1
##  6  16.8
##  7  16.3
##  8  NA  
##  9  15.5
## 10  15.9
## # … with 44 more rows

df[5]

## # A tibble: 54 x 1
##     temp
##    <dbl>
##  1  14.3
##  2  16.8
##  3  16.2
##  4  16.3
##  5  16.1
##  6  16.8
##  7  16.3
##  8  NA  
##  9  15.5
## 10  15.9
## # … with 44 more rows
…
